{
    "result": {
        "docs": [{
                "promotionTags": [],
                "sumCountView": 0,
                "isAvailable": true,
                "_id": "606bf4a777ab28002f17efb5",
                "idSellerAccount": "605605c5baeb20002fa4d562",
                "nameProduct": "Tepung Beras Rosbrand",
                "productCategory": "sembako",
                "priceProduct": "14000",
                "productWeight": 1000,
                "descProduct": "Tepung Beras RosBrand 1kg",
                "promoPrice": null,
                "createAt": "2021-04-06T05:41:59.554Z",
                "lastUpdateAt": "2021-04-06T05:41:59.554Z",
                "imgProduct": "1617687718508-976b4e0eec7f5039f85f744d12845d58",
                "__v": 0
            },
            {
                "promotionTags": [],
                "sumCountView": 0,
                "isAvailable": true,
                "_id": "606bf47577ab28002f17efb4",
                "idSellerAccount": "605605c5baeb20002fa4d562",
                "nameProduct": "Tepung Maizena",
                "productCategory": "sembako",
                "priceProduct": "15000",
                "productWeight": 500,
                "descProduct": "Tepung Maizena ",
                "promoPrice": null,
                "createAt": "2021-04-06T05:41:09.859Z",
                "lastUpdateAt": "2021-04-06T05:41:09.859Z",
                "imgProduct": "1617687668592-8ab76ea922d7ef982a09bac37bc1a67d",
                "__v": 0
            },
            {
                "promotionTags": [],
                "sumCountView": 0,
                "isAvailable": true,
                "_id": "606bf44377ab28002f17efb3",
                "idSellerAccount": "605605c5baeb20002fa4d562",
                "nameProduct": "Gulaku 1Kg",
                "productCategory": "sembako",
                "priceProduct": "26500",
                "productWeight": 1000,
                "descProduct": "Gulaku gula sehat ",
                "promoPrice": null,
                "createAt": "2021-04-06T05:40:19.401Z",
                "lastUpdateAt": "2021-04-06T05:40:19.401Z",
                "imgProduct": "1617687618298-6dba179f907c5867e3a2e9db11d21f85",
                "__v": 0
            },
            {
                "promotionTags": [],
                "sumCountView": 0,
                "isAvailable": true,
                "_id": "606bf0f477ab28002f17efb2",
                "idSellerAccount": "605605c5baeb20002fa4d562",
                "nameProduct": "Garam Dolphin 1Kg",
                "productCategory": "sembako",
                "priceProduct": "50000",
                "productWeight": 1000,
                "descProduct": "Garam sehat dan bergizi",
                "promoPrice": null,
                "createAt": "2021-04-06T05:26:12.547Z",
                "lastUpdateAt": "2021-04-06T05:26:12.547Z",
                "imgProduct": "1617686771275-5c30e140f50570c54f04240c8ffdddad",
                "__v": 0
            },
            {
                "promotionTags": [],
                "sumCountView": 0,
                "isAvailable": true,
                "_id": "606bf08f77ab28002f17efb1",
                "idSellerAccount": "605605c5baeb20002fa4d562",
                "nameProduct": "Dancow FortiGro",
                "productCategory": "sembako",
                "priceProduct": "45000",
                "productWeight": 400,
                "descProduct": "Susu Dancow Full Cream FortiGro",
                "promoPrice": null,
                "createAt": "2021-04-06T05:24:31.950Z",
                "lastUpdateAt": "2021-04-06T05:24:31.950Z",
                "imgProduct": "1617686670923-8e34c2ccf5b8fc827f4772a04f20b168",
                "__v": 0
            },
            {
                "promotionTags": [],
                "sumCountView": 0,
                "isAvailable": true,
                "_id": "606bf05377ab28002f17efb0",
                "idSellerAccount": "605605c5baeb20002fa4d562",
                "nameProduct": "Beras Fortune 5Kg",
                "productCategory": "sembako",
                "priceProduct": "65000",
                "productWeight": 5000,
                "descProduct": "Beras bersih Fortune",
                "promoPrice": null,
                "createAt": "2021-04-06T05:23:31.141Z",
                "lastUpdateAt": "2021-04-06T05:23:31.141Z",
                "imgProduct": "1617686609868-1a2faf7267795db4061510cae7239030",
                "__v": 0
            },
            {
                "promotionTags": [],
                "sumCountView": 0,
                "isAvailable": true,
                "_id": "6058897eb5b73f002f577c43",
                "idSellerAccount": "6058811ab5b73f002f577c3a",
                "nameProduct": "Telur 1 Papan",
                "productCategory": "sembako",
                "priceProduct": "45000",
                "productWeight": 5000,
                "descProduct": "Telur 1 papan ",
                "promoPrice": null,
                "createAt": "2021-03-22T12:11:42.108Z",
                "lastUpdateAt": "2021-03-22T12:11:42.108Z",
                "imgProduct": "1616415100791-ce47846821a95eece0c39d0e7c7aaeec",
                "__v": 0,
                "umkmTags": "toba"
            },
            {
                "promotionTags": [],
                "sumCountView": 0,
                "isAvailable": true,
                "_id": "6058893eb5b73f002f577c42",
                "idSellerAccount": "6058811ab5b73f002f577c3a",
                "nameProduct": "Susu Frisian Flag",
                "productCategory": "sembako",
                "priceProduct": "9000",
                "productWeight": 500,
                "descProduct": "Susu botol frisian flag",
                "promoPrice": null,
                "createAt": "2021-03-22T12:10:38.233Z",
                "lastUpdateAt": "2021-03-22T12:10:38.233Z",
                "imgProduct": "1616415036976-b5c7ccb2bf6dad9bdfc21e489ef83cae",
                "__v": 0
            },
            {
                "promotionTags": [],
                "sumCountView": 0,
                "isAvailable": true,
                "_id": "6058858ab5b73f002f577c41",
                "idSellerAccount": "6058811ab5b73f002f577c3a",
                "nameProduct": "Minyak Sanco 2L",
                "productCategory": "sembako",
                "priceProduct": "42000",
                "productWeight": 2000,
                "descProduct": "Minyak Sanco pilihan terbaik kluarga",
                "promoPrice": null,
                "createAt": "2021-03-22T11:54:50.801Z",
                "lastUpdateAt": "2021-03-22T11:54:50.801Z",
                "imgProduct": "1616414089616-da1d2bace3e8f8da57e228396becd6f0",
                "__v": 0
            },
            {
                "promotionTags": [],
                "sumCountView": 0,
                "isAvailable": true,
                "_id": "60588509b5b73f002f577c40",
                "idSellerAccount": "6058811ab5b73f002f577c3a",
                "nameProduct": "Jagung Muda",
                "productCategory": "sembako",
                "priceProduct": "22000",
                "productWeight": 1000,
                "descProduct": "Jagu mudah dapat dibeli perKG",
                "promoPrice": 19000,
                "createAt": "2021-03-22T11:52:41.875Z",
                "lastUpdateAt": "2021-03-22T11:52:41.875Z",
                "imgProduct": "1616413960744-66c335727ed9101ea8aca02be7a51c99",
                "__v": 0,
                "priceServiceRange": ""
            }
        ],
        "totalDocs": 24,
        "limit": 10,
        "totalPages": 3,
        "page": 1,
        "pagingCounter": 1,
        "hasPrevPage": false,
        "hasNextPage": true,
        "prevPage": null,
        "nextPage": 2
    }
}
